{
  "_class": "shapePath",
  "booleanOperation": -1,
  "do_objectID": "CA992C29-7AC3-4FAE-8684-9642286A1EA4",
  "edited": true,
  "exportOptions": {
    "_class": "exportOptions",
    "exportFormats": [
    ],
    "includedLayerIds": [
    ],
    "layerOptions": 0,
    "shouldTrim": false
  },
  "frame": {
    "_class": "rect",
    "constrainProportions": false,
    "height": 2,
    "width": 2,
    "x": -47,
    "y": -47
  },
  "isClosed": false,
  "isFixedToViewport": false,
  "isFlippedHorizontal": false,
  "isFlippedVertical": false,
  "isLocked": false,
  "isVisible": true,
  "layerListExpandedType": 0,
  "name": "Path",
  "nameIsFixed": false,
  "pointRadiusBehaviour": 1,
  "points": [
    {
      "_class": "curvePoint",
      "cornerRadius": 0,
      "curveFrom": "{52.557370415619971, 52.428761295466217}",
      "curveMode": 2,
      "curveTo": "{44.442629584380029, 44.571238704533783}",
      "hasCurveFrom": true,
      "hasCurveTo": true,
      "point": "{48.5, 48.5}"
    }
  ],
  "resizingConstraint": 63,
  "resizingType": 0,
  "rotation": 0,
  "shouldBreakMaskChain": false
}