{
  "_class": "symbolMaster",
  "backgroundColor": {
    "_class": "color",
    "alpha": 1,
    "blue": 0.1094621494412422,
    "green": 0.9072384238243103,
    "red": 0.9707751870155334
  },
  "booleanOperation": -1,
  "changeIdentifier": 6988,
  "do_objectID": "3D2C9ED5-A0BC-4E9E-95D5-C2A875C15786",
  "exportOptions": {
    "_class": "exportOptions",
    "exportFormats": [
    ],
    "includedLayerIds": [
    ],
    "layerOptions": 0,
    "shouldTrim": false
  },
  "frame": {
    "_class": "rect",
    "constrainProportions": false,
    "height": 144,
    "width": 795,
    "x": 1182,
    "y": 511
  },
  "hasBackgroundColor": true,
  "hasClickThrough": true,
  "horizontalRulerData": {
    "_class": "rulerData",
    "base": 0,
    "guides": [
    ]
  },
  "includeBackgroundColorInExport": true,
  "includeBackgroundColorInInstance": true,
  "includeInCloudUpload": true,
  "isFixedToViewport": false,
  "isFlippedHorizontal": false,
  "isFlippedVertical": false,
  "isFlowHome": false,
  "isLocked": false,
  "isVisible": true,
  "layerListExpandedType": 2,
  "layers": [
    {
      "class": "shapeGroup",
      "id": "409CACFC-ABC3-479B-84D0-6E7BAE5AC9CB"
    },
    {
      "class": "text",
      "id": "952E84CC-2096-4669-A528-4CF20FA80F0B"
    },
    {
      "class": "text",
      "id": "13F07F53-D045-433F-A05A-17277D12DD4A"
    },
    {
      "class": "text",
      "id": "0CBEC4D0-876D-439E-B81F-0ADE8EF7B358"
    },
    {
      "class": "text",
      "id": "93854106-37E5-4157-9F6F-59A46D459808"
    },
    {
      "class": "bitmap",
      "id": "9D5AFFE5-98BE-482A-B8FB-D0EDD639F289"
    },
    {
      "class": "text",
      "id": "4385274D-D5C5-41FA-8186-267E6E06B7C0"
    }
  ],
  "name": "ProjectItem - Mockup - var1",
  "nameIsFixed": true,
  "resizesContent": false,
  "resizingConstraint": 63,
  "resizingType": 0,
  "rotation": 0,
  "shouldBreakMaskChain": true,
  "style": {
    "_class": "style",
    "endMarkerType": 0,
    "miterLimit": 10,
    "startMarkerType": 0,
    "windingRule": 1
  },
  "symbolID": "49AEFCD3-551C-4459-B3BE-434A4493EB7A",
  "userInfo": {
    "io.magicsketch.mirror": {
      "highestQuality": 1
    }
  },
  "verticalRulerData": {
    "_class": "rulerData",
    "base": 0,
    "guides": [
    ]
  }
}