{
  "_class": "symbolInstance",
  "booleanOperation": -1,
  "do_objectID": "09518EE6-2548-4BCA-BF52-089D06EECFCC",
  "exportOptions": {
    "_class": "exportOptions",
    "do_objectID": "9B35C2DE-4940-4F4E-982D-E371EF637A4C",
    "exportFormats": [
    ],
    "includedLayerIds": [
    ],
    "layerOptions": 0,
    "shouldTrim": false
  },
  "frame": {
    "_class": "rect",
    "constrainProportions": false,
    "do_objectID": "1D55845B-0BBD-40C1-AB09-EED517FC2064",
    "height": 144,
    "width": 795,
    "x": 117,
    "y": 645
  },
  "horizontalSpacing": 0,
  "isFixedToViewport": false,
  "isFlippedHorizontal": false,
  "isFlippedVertical": false,
  "isLocked": false,
  "isVisible": true,
  "layerListExpandedType": 0,
  "name": "ProjectItem Copy 2",
  "nameIsFixed": false,
  "overrideValues": [
  ],
  "resizingConstraint": 63,
  "resizingType": 0,
  "rotation": 0,
  "scale": 1,
  "shouldBreakMaskChain": false,
  "style": {
    "_class": "style",
    "do_objectID": "786C7CF5-4462-42FA-B5F4-4E3AFA21004F",
    "endMarkerType": 0,
    "miterLimit": 10,
    "startMarkerType": 0,
    "windingRule": 1
  },
  "symbolID": "49AEFCD3-551C-4459-B3BE-434A4493EB7A",
  "verticalSpacing": 0
}