{
  "_class": "artboard",
  "backgroundColor": {
    "_class": "color",
    "alpha": 1,
    "blue": 1,
    "do_objectID": "06C008F4-8B76-4F62-A12B-E4654B611462",
    "green": 1,
    "red": 1
  },
  "booleanOperation": -1,
  "do_objectID": "EED0E415-10E2-4F1C-8572-85F0770F24A8",
  "exportOptions": {
    "_class": "exportOptions",
    "do_objectID": "1943FE12-0CCC-4BD9-9517-752B8F5B6A37",
    "exportFormats": [
    ],
    "includedLayerIds": [
    ],
    "layerOptions": 0,
    "shouldTrim": false
  },
  "frame": {
    "_class": "rect",
    "constrainProportions": false,
    "do_objectID": "7E84BD09-DFB5-4789-A636-A9991D147A74",
    "height": 1024,
    "width": 1024,
    "x": -159,
    "y": -344
  },
  "grid": {
    "_class": "simpleGrid",
    "do_objectID": "F517B79F-D007-4F92-828F-4915C4518BAF",
    "gridSize": 20,
    "isEnabled": false,
    "thickGridTimes": 10
  },
  "hasBackgroundColor": false,
  "hasClickThrough": true,
  "horizontalRulerData": {
    "_class": "rulerData",
    "base": 0,
    "do_objectID": "7ADF6D4D-0768-405D-9E44-546A49377F46",
    "guides": [
    ]
  },
  "includeBackgroundColorInExport": true,
  "includeInCloudUpload": true,
  "isFixedToViewport": false,
  "isFlippedHorizontal": false,
  "isFlippedVertical": false,
  "isFlowHome": false,
  "isLocked": false,
  "isVisible": true,
  "layerListExpandedType": 2,
  "layers": [
    {
      "class": "symbolInstance",
      "id": "B56CBD5A-5E28-40EC-B1FE-928C7C973377"
    },
    {
      "class": "symbolInstance",
      "id": "8AA4B7BE-8E46-4CA5-92D9-3E1B61A2C5D0"
    },
    {
      "class": "shapeGroup",
      "id": "5E77AA0E-1D5B-460B-B6EF-58BEABE9B620"
    },
    {
      "class": "text",
      "id": "CB8E4BAE-50FB-4BA6-82C3-73E1AEBDB8A5"
    },
    {
      "class": "symbolInstance",
      "id": "09042D3B-E7E1-48E9-B55C-06F380456A1E"
    },
    {
      "class": "symbolInstance",
      "id": "970F0531-1E8C-4B0A-8313-167B3CD39D04"
    },
    {
      "class": "symbolInstance",
      "id": "09518EE6-2548-4BCA-BF52-089D06EECFCC"
    }
  ],
  "layout": {
    "_class": "layoutGrid",
    "columnWidth": 60,
    "do_objectID": "6CE2B210-0282-4108-B83C-5E052C333BFF",
    "drawHorizontal": false,
    "drawHorizontalLines": false,
    "drawVertical": true,
    "gutterHeight": 12,
    "gutterWidth": 27.63636363636364,
    "guttersOutside": false,
    "horizontalOffset": 0,
    "isEnabled": false,
    "numberOfColumns": 12,
    "rowHeightMultiplication": 5,
    "totalWidth": 1024
  },
  "name": "Projects",
  "nameIsFixed": true,
  "presetDictionary": {
    "allowResizedMatching": 0,
    "height": 1024,
    "name": "Desktop",
    "offersLandscapeVariant": 0,
    "width": 1024
  },
  "resizesContent": false,
  "resizingConstraint": 63,
  "resizingType": 0,
  "rotation": 0,
  "shouldBreakMaskChain": true,
  "style": {
    "_class": "style",
    "do_objectID": "0C657D69-8FAC-4A76-AAA2-32D38DFB5CF3",
    "endMarkerType": 0,
    "miterLimit": 10,
    "startMarkerType": 0,
    "windingRule": 1
  },
  "userInfo": {
    "io.magicsketch.mirror": {
      "highestQuality": 1
    }
  },
  "verticalRulerData": {
    "_class": "rulerData",
    "base": 0,
    "do_objectID": "7941546D-3B45-4B20-87D3-9C39EA136B7C",
    "guides": [
    ]
  }
}