{
  "_class": "symbolMaster",
  "backgroundColor": {
    "_class": "color",
    "alpha": 1,
    "blue": 1,
    "green": 1,
    "red": 1
  },
  "booleanOperation": -1,
  "changeIdentifier": 53,
  "do_objectID": "1FD1E93B-19EB-47B2-A7E5-99EA7A16A78A",
  "exportOptions": {
    "_class": "exportOptions",
    "exportFormats": [
    ],
    "includedLayerIds": [
    ],
    "layerOptions": 0,
    "shouldTrim": false
  },
  "frame": {
    "_class": "rect",
    "constrainProportions": false,
    "height": 144,
    "width": 795,
    "x": 1211,
    "y": -23
  },
  "hasBackgroundColor": false,
  "hasClickThrough": false,
  "horizontalRulerData": {
    "_class": "rulerData",
    "base": 0,
    "guides": [
    ]
  },
  "includeBackgroundColorInExport": true,
  "includeBackgroundColorInInstance": false,
  "includeInCloudUpload": true,
  "isFixedToViewport": false,
  "isFlippedHorizontal": false,
  "isFlippedVertical": false,
  "isFlowHome": false,
  "isLocked": false,
  "isVisible": true,
  "layerListExpandedType": 1,
  "layers": [
    {
      "class": "shapeGroup",
      "id": "9CE35603-92E3-49AA-9816-754EC96DC33F"
    },
    {
      "class": "text",
      "id": "A925E195-FC98-4B8A-8047-8A66FA247990"
    },
    {
      "class": "text",
      "id": "743DF142-DDDD-4B4C-9EB9-E4C186BCA79C"
    },
    {
      "class": "text",
      "id": "1E84CF75-1A59-4F8A-BA8D-CAB7CB05FBAE"
    },
    {
      "class": "text",
      "id": "9D7A0F50-41EC-4B2D-9D3B-4E7A8753CB01"
    },
    {
      "class": "bitmap",
      "id": "7495BE1C-038C-4949-B86C-8A7EF7F9561A"
    },
    {
      "class": "text",
      "id": "5B8C4470-3C72-4D3F-944B-A573FF434A1F"
    }
  ],
  "name": "ProjectItem - Wireframe",
  "nameIsFixed": true,
  "resizesContent": false,
  "resizingConstraint": 63,
  "resizingType": 0,
  "rotation": 0,
  "shouldBreakMaskChain": true,
  "style": {
    "_class": "style",
    "endMarkerType": 0,
    "miterLimit": 10,
    "startMarkerType": 0,
    "windingRule": 1
  },
  "symbolID": "1B98E60A-4ADF-4771-B72A-FFB24FE28032",
  "userInfo": {
    "io.magicsketch.mirror": {
      "highestQuality": 1
    }
  },
  "verticalRulerData": {
    "_class": "rulerData",
    "base": 0,
    "guides": [
    ]
  }
}