{
  "_class": "symbolInstance",
  "booleanOperation": -1,
  "do_objectID": "1B0DA2AF-4E42-410D-89CB-F24A41B9C107",
  "exportOptions": {
    "_class": "exportOptions",
    "do_objectID": "05F69AEE-17BE-4CBD-BFFA-44FB24189BFF",
    "exportFormats": [
    ],
    "includedLayerIds": [
    ],
    "layerOptions": 0,
    "shouldTrim": false
  },
  "frame": {
    "_class": "rect",
    "constrainProportions": false,
    "do_objectID": "76E2F03F-5B3A-4C96-8AA7-652DF0C52E32",
    "height": 26,
    "width": 84,
    "x": 165,
    "y": 118
  },
  "horizontalSpacing": 0,
  "isFixedToViewport": false,
  "isFlippedHorizontal": false,
  "isFlippedVertical": false,
  "isLocked": false,
  "isVisible": true,
  "layerListExpandedType": 0,
  "name": "TagItemSmall Copy 8",
  "nameIsFixed": false,
  "overrideValues": [
  ],
  "resizingConstraint": 63,
  "resizingType": 0,
  "rotation": 0,
  "scale": 1,
  "shouldBreakMaskChain": false,
  "style": {
    "_class": "style",
    "do_objectID": "6170E76C-63C8-45FF-A011-6C854060961F",
    "endMarkerType": 0,
    "miterLimit": 10,
    "startMarkerType": 0,
    "windingRule": 1
  },
  "symbolID": "9FD18985-616C-4284-928F-7C8D62E08FCA",
  "verticalSpacing": 0
}