{
  "_class": "symbolInstance",
  "booleanOperation": -1,
  "do_objectID": "3C776649-1279-4228-9972-09BEE183CDE7",
  "exportOptions": {
    "_class": "exportOptions",
    "do_objectID": "207624F7-D256-4F64-B703-64A2521342F8",
    "exportFormats": [
    ],
    "includedLayerIds": [
    ],
    "layerOptions": 0,
    "shouldTrim": false
  },
  "frame": {
    "_class": "rect",
    "constrainProportions": false,
    "do_objectID": "C50C9426-B12D-417D-B14B-42243F7BB087",
    "height": 26,
    "width": 84,
    "x": 355,
    "y": 118
  },
  "horizontalSpacing": 0,
  "isFixedToViewport": false,
  "isFlippedHorizontal": false,
  "isFlippedVertical": false,
  "isLocked": false,
  "isVisible": true,
  "layerListExpandedType": 0,
  "name": "TagItemSmall Copy 10",
  "nameIsFixed": false,
  "overrideValues": [
  ],
  "resizingConstraint": 63,
  "resizingType": 0,
  "rotation": 0,
  "scale": 1,
  "shouldBreakMaskChain": false,
  "style": {
    "_class": "style",
    "do_objectID": "DDE5B9CC-74A6-4CF4-93D5-397D45075A20",
    "endMarkerType": 0,
    "miterLimit": 10,
    "startMarkerType": 0,
    "windingRule": 1
  },
  "symbolID": "9FD18985-616C-4284-928F-7C8D62E08FCA",
  "verticalSpacing": 0
}