{
  "_class": "symbolInstance",
  "booleanOperation": -1,
  "do_objectID": "E7AD4388-9B32-41ED-B390-9C87EB79565B",
  "exportOptions": {
    "_class": "exportOptions",
    "do_objectID": "79D692F1-10F2-42F8-8044-95D6F4364CBC",
    "exportFormats": [
    ],
    "includedLayerIds": [
    ],
    "layerOptions": 0,
    "shouldTrim": false
  },
  "frame": {
    "_class": "rect",
    "constrainProportions": false,
    "do_objectID": "5415F17F-9133-4340-ADD1-81D622490B80",
    "height": 33,
    "width": 107,
    "x": 22,
    "y": 0
  },
  "horizontalSpacing": 0,
  "isFixedToViewport": false,
  "isFlippedHorizontal": false,
  "isFlippedVertical": false,
  "isLocked": false,
  "isVisible": true,
  "layerListExpandedType": 0,
  "name": "TagItem",
  "nameIsFixed": false,
  "overrideValues": [
  ],
  "resizingConstraint": 63,
  "resizingType": 0,
  "rotation": 0,
  "scale": 1,
  "shouldBreakMaskChain": false,
  "style": {
    "_class": "style",
    "do_objectID": "3F9FAABA-85DF-4C12-A8EA-6DE76BB958ED",
    "endMarkerType": 0,
    "miterLimit": 10,
    "startMarkerType": 0,
    "windingRule": 1
  },
  "symbolID": "2880B02E-458E-4001-BBBA-FA1E8D85F48A",
  "verticalSpacing": 0
}