{
  "_class": "symbolInstance",
  "booleanOperation": -1,
  "do_objectID": "F0EE4D0C-D1DF-4770-BF4E-3A82A510B80C",
  "exportOptions": {
    "_class": "exportOptions",
    "do_objectID": "5BD1D6BB-BAFA-4B51-BF21-CF4A1A37722E",
    "exportFormats": [
    ],
    "includedLayerIds": [
    ],
    "layerOptions": 0,
    "shouldTrim": false
  },
  "frame": {
    "_class": "rect",
    "constrainProportions": false,
    "do_objectID": "F1D513E1-D9FD-4E44-A4D8-DA0D401A8149",
    "height": 26,
    "width": 84,
    "x": 545,
    "y": 118
  },
  "horizontalSpacing": 0,
  "isFixedToViewport": false,
  "isFlippedHorizontal": false,
  "isFlippedVertical": false,
  "isLocked": false,
  "isVisible": true,
  "layerListExpandedType": 0,
  "name": "TagItemSmall Copy 12",
  "nameIsFixed": false,
  "overrideValues": [
  ],
  "resizingConstraint": 63,
  "resizingType": 0,
  "rotation": 0,
  "scale": 1,
  "shouldBreakMaskChain": false,
  "style": {
    "_class": "style",
    "do_objectID": "FF3F2E72-EDA1-4D9F-9059-7C1E661258C2",
    "endMarkerType": 0,
    "miterLimit": 10,
    "startMarkerType": 0,
    "windingRule": 1
  },
  "symbolID": "9FD18985-616C-4284-928F-7C8D62E08FCA",
  "verticalSpacing": 0
}