{
  "_class": "group",
  "booleanOperation": -1,
  "do_objectID": "8E73FD4A-8E6A-4113-8B90-A06C4F69E6C3",
  "exportOptions": {
    "_class": "exportOptions",
    "do_objectID": "AF6D338D-0100-4FE7-B3B6-9118A2532F82",
    "exportFormats": [
    ],
    "includedLayerIds": [
    ],
    "layerOptions": 0,
    "shouldTrim": false
  },
  "frame": {
    "_class": "rect",
    "constrainProportions": false,
    "do_objectID": "5BD4B425-B893-4C15-B4D3-E4A9FD1BBE8D",
    "height": 144,
    "width": 676,
    "x": 187,
    "y": 244
  },
  "hasClickThrough": false,
  "isFixedToViewport": false,
  "isFlippedHorizontal": false,
  "isFlippedVertical": false,
  "isLocked": false,
  "isVisible": true,
  "layerListExpandedType": 0,
  "layers": [
    {
      "class": "shapeGroup",
      "id": "0F90348C-9F1F-4D6B-AE6B-AA807E1B4D09"
    },
    {
      "class": "text",
      "id": "D9E1B74C-E755-448D-978B-96546479B331"
    },
    {
      "class": "symbolInstance",
      "id": "AB37484E-274A-4253-A971-82B43E15BF5C"
    },
    {
      "class": "symbolInstance",
      "id": "29193846-8334-436F-AB3E-CB0A55374AC4"
    },
    {
      "class": "symbolInstance",
      "id": "1B0DA2AF-4E42-410D-89CB-F24A41B9C107"
    },
    {
      "class": "symbolInstance",
      "id": "B790B8AC-375C-4C36-839F-154EFD4CB8C8"
    },
    {
      "class": "symbolInstance",
      "id": "3C776649-1279-4228-9972-09BEE183CDE7"
    },
    {
      "class": "symbolInstance",
      "id": "D13E30E4-A27F-486D-8B48-85D6EE0690B1"
    },
    {
      "class": "symbolInstance",
      "id": "F0EE4D0C-D1DF-4770-BF4E-3A82A510B80C"
    },
    {
      "class": "symbolInstance",
      "id": "3393A016-CF10-483D-8AF0-F937A0AF34F4"
    },
    {
      "class": "symbolInstance",
      "id": "F170C02E-2998-46F1-8270-1C72A0846605"
    },
    {
      "class": "symbolInstance",
      "id": "7B9FE166-6580-4552-9C5C-15E676ABF8AF"
    },
    {
      "class": "symbolInstance",
      "id": "4DE3B1DE-7073-47BD-BA55-E32B25DB41AF"
    },
    {
      "class": "symbolInstance",
      "id": "5D4A5AE2-ECEF-451A-B22C-E969487F2915"
    },
    {
      "class": "symbolInstance",
      "id": "CCB52DD6-AAA5-4621-A202-736F7200DD78"
    },
    {
      "class": "symbolInstance",
      "id": "E7AD4388-9B32-41ED-B390-9C87EB79565B"
    },
    {
      "class": "symbolInstance",
      "id": "E615C1FE-5464-4F24-8613-CD1148308D95"
    },
    {
      "class": "symbolInstance",
      "id": "1E12F283-8B9C-41C9-AE59-1E31DBEBD778"
    }
  ],
  "name": "Group",
  "nameIsFixed": false,
  "resizingConstraint": 63,
  "resizingType": 0,
  "rotation": 0,
  "shouldBreakMaskChain": false,
  "style": {
    "_class": "style",
    "do_objectID": "B28B84C9-92E7-4689-A10F-9B7EB9321297",
    "endMarkerType": 0,
    "miterLimit": 10,
    "startMarkerType": 0,
    "windingRule": 1
  }
}