{
  "_class": "shapePath",
  "booleanOperation": -1,
  "do_objectID": "289D32C7-D760-499D-8E52-65F01BDC3188",
  "edited": true,
  "exportOptions": {
    "_class": "exportOptions",
    "exportFormats": [
    ],
    "includedLayerIds": [
    ],
    "layerOptions": 0,
    "shouldTrim": false
  },
  "frame": {
    "_class": "rect",
    "constrainProportions": false,
    "height": 2,
    "width": 2,
    "x": -36,
    "y": -36
  },
  "isClosed": false,
  "isFixedToViewport": false,
  "isFlippedHorizontal": false,
  "isFlippedVertical": false,
  "isLocked": false,
  "isVisible": true,
  "layerListExpandedType": 0,
  "name": "Path",
  "nameIsFixed": false,
  "pointRadiusBehaviour": 1,
  "points": [
    {
      "_class": "curvePoint",
      "cornerRadius": 0,
      "curveFrom": "{144.13159795470671, 78.711418790617472}",
      "curveMode": 2,
      "curveTo": "{-51.234553657411482, 7.2885812093825137}",
      "hasCurveFrom": true,
      "hasCurveTo": true,
      "point": "{46.448522148647612, 43}"
    }
  ],
  "resizingConstraint": 63,
  "resizingType": 0,
  "rotation": 0,
  "shouldBreakMaskChain": false
}