{
  "_class": "artboard",
  "backgroundColor": {
    "_class": "color",
    "alpha": 1,
    "blue": 1,
    "green": 1,
    "red": 1
  },
  "booleanOperation": -1,
  "do_objectID": "C8E0F738-997A-4B98-9C39-37C1C4603A28",
  "exportOptions": {
    "_class": "exportOptions",
    "exportFormats": [
    ],
    "includedLayerIds": [
    ],
    "layerOptions": 0,
    "shouldTrim": false
  },
  "frame": {
    "_class": "rect",
    "constrainProportions": false,
    "height": 1024,
    "width": 1024,
    "x": -159,
    "y": -1455
  },
  "grid": {
    "_class": "simpleGrid",
    "gridSize": 20,
    "isEnabled": false,
    "thickGridTimes": 10
  },
  "hasBackgroundColor": false,
  "hasClickThrough": true,
  "horizontalRulerData": {
    "_class": "rulerData",
    "base": 0,
    "guides": [
    ]
  },
  "includeBackgroundColorInExport": true,
  "includeInCloudUpload": true,
  "isFixedToViewport": false,
  "isFlippedHorizontal": false,
  "isFlippedVertical": false,
  "isFlowHome": false,
  "isLocked": false,
  "isVisible": true,
  "layerListExpandedType": 2,
  "layers": [
    {
      "class": "symbolInstance",
      "id": "B3A573BD-9761-4EFA-9115-52E077571D7C"
    },
    {
      "class": "shapeGroup",
      "id": "0C0D1A40-F64A-49C3-AE12-EF9423A5E664"
    },
    {
      "class": "shapeGroup",
      "id": "A8B2D620-B364-4B4C-A637-74E9FFB28950"
    },
    {
      "class": "text",
      "id": "70E055EF-D7DB-4892-97DB-FDB9C985D470"
    },
    {
      "class": "text",
      "id": "D01DE64C-1918-4D23-9173-4D8CEFD1B886"
    },
    {
      "class": "symbolInstance",
      "id": "AAB1764D-7655-4C2A-B11C-42E09700B7BA"
    },
    {
      "class": "shapeGroup",
      "id": "99A79EF6-34DF-4A3F-920C-597BD1287E20"
    },
    {
      "class": "group",
      "id": "96791E11-7736-4734-8479-64634604C3D3"
    }
  ],
  "layout": {
    "_class": "layoutGrid",
    "columnWidth": 60,
    "drawHorizontal": false,
    "drawHorizontalLines": false,
    "drawVertical": true,
    "gutterHeight": 12,
    "gutterWidth": 27.63636363636364,
    "guttersOutside": false,
    "horizontalOffset": 0,
    "isEnabled": true,
    "numberOfColumns": 12,
    "rowHeightMultiplication": 5,
    "totalWidth": 1024
  },
  "name": "About (Landing Page)",
  "nameIsFixed": true,
  "presetDictionary": {
    "allowResizedMatching": 0,
    "height": 1024,
    "name": "Desktop",
    "offersLandscapeVariant": 0,
    "width": 1024
  },
  "resizesContent": false,
  "resizingConstraint": 63,
  "resizingType": 0,
  "rotation": 0,
  "shouldBreakMaskChain": true,
  "style": {
    "_class": "style",
    "endMarkerType": 0,
    "miterLimit": 10,
    "startMarkerType": 0,
    "windingRule": 1
  },
  "userInfo": {
    "io.magicsketch.mirror": {
      "highestQuality": 1
    }
  },
  "verticalRulerData": {
    "_class": "rulerData",
    "base": 0,
    "guides": [
    ]
  }
}