{
  "_class": "group",
  "booleanOperation": -1,
  "do_objectID": "FC91CA5B-9F1C-4BF3-B831-FBC834857DDB",
  "exportOptions": {
    "_class": "exportOptions",
    "exportFormats": [
    ],
    "includedLayerIds": [
    ],
    "layerOptions": 0,
    "shouldTrim": false
  },
  "frame": {
    "_class": "rect",
    "constrainProportions": false,
    "height": 387,
    "width": 339,
    "x": 71,
    "y": 518
  },
  "hasClickThrough": false,
  "isFixedToViewport": false,
  "isFlippedHorizontal": false,
  "isFlippedVertical": false,
  "isLocked": false,
  "isVisible": true,
  "layerListExpandedType": 0,
  "layers": [
    {
      "class": "shapeGroup",
      "id": "2845BA91-FA32-49A3-903F-34D784C23447"
    },
    {
      "class": "text",
      "id": "7A1F7E8F-4F0C-4420-AD71-9BFD6613AC7F"
    },
    {
      "class": "text",
      "id": "D985D61D-3AB2-4ABC-B21E-B022696EA0F6"
    },
    {
      "class": "bitmap",
      "id": "7A463696-B0B1-4FD1-8069-AE48413AD49C"
    }
  ],
  "name": "BlogItem Copy 3",
  "nameIsFixed": false,
  "resizingConstraint": 63,
  "resizingType": 0,
  "rotation": 0,
  "shouldBreakMaskChain": false,
  "style": {
    "_class": "style",
    "endMarkerType": 0,
    "miterLimit": 10,
    "startMarkerType": 0,
    "windingRule": 1
  }
}