{
  "_class": "group",
  "booleanOperation": -1,
  "do_objectID": "66EA4D49-EE9F-43F4-9E86-04CA6E2E622E",
  "exportOptions": {
    "_class": "exportOptions",
    "exportFormats": [
    ],
    "includedLayerIds": [
    ],
    "layerOptions": 0,
    "shouldTrim": false
  },
  "frame": {
    "_class": "rect",
    "constrainProportions": false,
    "height": 287,
    "width": 334,
    "x": 76,
    "y": 217
  },
  "hasClickThrough": false,
  "isFixedToViewport": false,
  "isFlippedHorizontal": false,
  "isFlippedVertical": false,
  "isLocked": false,
  "isVisible": true,
  "layerListExpandedType": 0,
  "layers": [
    {
      "class": "shapeGroup",
      "id": "A3774916-535A-4C9B-A0A4-6BCDC8F0B617"
    },
    {
      "class": "text",
      "id": "2DB2FB75-829F-4D23-9D4D-3B69797832C7"
    },
    {
      "class": "text",
      "id": "496D758C-4557-4B93-AC22-5D76FBA13D3E"
    },
    {
      "class": "bitmap",
      "id": "9E549884-655B-4E25-883F-BC022447E007"
    }
  ],
  "name": "BlogItem",
  "nameIsFixed": false,
  "resizingConstraint": 63,
  "resizingType": 0,
  "rotation": 0,
  "shouldBreakMaskChain": false,
  "style": {
    "_class": "style",
    "endMarkerType": 0,
    "miterLimit": 10,
    "startMarkerType": 0,
    "windingRule": 1
  }
}