{
  "_class": "shapePath",
  "booleanOperation": -1,
  "do_objectID": "C4DB9B2B-CF0E-41ED-B69D-FB12EE676841",
  "edited": true,
  "exportOptions": {
    "_class": "exportOptions",
    "exportFormats": [
    ],
    "includedLayerIds": [
    ],
    "layerOptions": 0,
    "shouldTrim": false
  },
  "frame": {
    "_class": "rect",
    "constrainProportions": false,
    "height": 90,
    "width": 0.5,
    "x": 0,
    "y": 0
  },
  "isClosed": false,
  "isFixedToViewport": false,
  "isFlippedHorizontal": false,
  "isFlippedVertical": false,
  "isLocked": false,
  "isVisible": true,
  "layerListExpandedType": 0,
  "name": "Path",
  "nameIsFixed": false,
  "pointRadiusBehaviour": 1,
  "points": [
    {
      "_class": "curvePoint",
      "cornerRadius": 0,
      "curveFrom": "{0.44444444444444448, 0.011111111111111118}",
      "curveMode": 1,
      "curveTo": "{0.44444444444444448, 0.011111111111111118}",
      "hasCurveFrom": false,
      "hasCurveTo": false,
      "point": "{0.41666666666666674, 0.0055555555555555592}"
    },
    {
      "_class": "curvePoint",
      "cornerRadius": 0,
      "curveFrom": "{0.5, 0.022222222222222237}",
      "curveMode": 1,
      "curveTo": "{0.5, 0.022222222222222237}",
      "hasCurveFrom": false,
      "hasCurveTo": false,
      "point": "{0.41666666666666674, 0.98888888888888893}"
    }
  ],
  "resizingConstraint": 63,
  "resizingType": 0,
  "rotation": 0,
  "shouldBreakMaskChain": false
}