{
  "_class": "symbolMaster",
  "backgroundColor": {
    "_class": "color",
    "alpha": 1,
    "blue": 0.886238694190979,
    "green": 0.5645518898963928,
    "red": 0.288655698299408
  },
  "booleanOperation": -1,
  "changeIdentifier": 6223,
  "do_objectID": "880F7AFB-D515-4633-A58D-46BF6713D368",
  "exportOptions": {
    "_class": "exportOptions",
    "exportFormats": [
    ],
    "includedLayerIds": [
    ],
    "layerOptions": 0,
    "shouldTrim": false
  },
  "frame": {
    "_class": "rect",
    "constrainProportions": false,
    "height": 144,
    "width": 795,
    "x": 1182,
    "y": 746
  },
  "hasBackgroundColor": true,
  "hasClickThrough": true,
  "horizontalRulerData": {
    "_class": "rulerData",
    "base": 0,
    "guides": [
    ]
  },
  "includeBackgroundColorInExport": true,
  "includeBackgroundColorInInstance": true,
  "includeInCloudUpload": true,
  "isFixedToViewport": false,
  "isFlippedHorizontal": false,
  "isFlippedVertical": false,
  "isFlowHome": false,
  "isLocked": false,
  "isVisible": true,
  "layerListExpandedType": 2,
  "layers": [
    {
      "class": "shapeGroup",
      "id": "20D56F92-5055-4284-8DC6-F4151DD72B30"
    },
    {
      "class": "text",
      "id": "620D6D4B-AA37-4CE5-8CDC-468653F4D952"
    },
    {
      "class": "text",
      "id": "587162A5-C27C-4BA6-863F-E5BF9DE9804E"
    },
    {
      "class": "text",
      "id": "83F2E88C-1B40-464D-ACB0-B1EEDC3D60B1"
    },
    {
      "class": "text",
      "id": "8D3F8EBF-562C-4435-9CF4-5A9883FF7943"
    },
    {
      "class": "bitmap",
      "id": "AF1D153A-F573-4EF3-ABBD-CDC3B18FDA8E"
    },
    {
      "class": "text",
      "id": "30D2E2BC-8082-416C-8BB3-817DC4BCB613"
    }
  ],
  "name": "ProjectItem - Mockup - var2",
  "nameIsFixed": true,
  "resizesContent": false,
  "resizingConstraint": 63,
  "resizingType": 0,
  "rotation": 0,
  "shouldBreakMaskChain": true,
  "style": {
    "_class": "style",
    "endMarkerType": 0,
    "miterLimit": 10,
    "startMarkerType": 0,
    "windingRule": 1
  },
  "symbolID": "A9A7A001-1F66-4FFC-8FF0-1F527DD62754",
  "userInfo": {
    "io.magicsketch.mirror": {
      "highestQuality": 1
    }
  },
  "verticalRulerData": {
    "_class": "rulerData",
    "base": 0,
    "guides": [
    ]
  }
}