{
  "_class": "shapePath",
  "booleanOperation": -1,
  "do_objectID": "CF2EBED9-E2BB-43A5-B390-2C0EE5FE160D",
  "edited": true,
  "exportOptions": {
    "_class": "exportOptions",
    "exportFormats": [
    ],
    "includedLayerIds": [
    ],
    "layerOptions": 0,
    "shouldTrim": false
  },
  "frame": {
    "_class": "rect",
    "constrainProportions": false,
    "height": 2,
    "width": 63.51363698154844,
    "x": -2.842170943040401e-14,
    "y": -1
  },
  "isClosed": false,
  "isFixedToViewport": false,
  "isFlippedHorizontal": false,
  "isFlippedVertical": false,
  "isLocked": false,
  "isVisible": true,
  "layerListExpandedType": 0,
  "name": "Path",
  "nameIsFixed": false,
  "pointRadiusBehaviour": 1,
  "points": [
    {
      "_class": "curvePoint",
      "cornerRadius": 0,
      "curveFrom": "{0.11434646674671055, 0.5}",
      "curveMode": 1,
      "curveTo": "{0.0078723251220089545, 0.75}",
      "hasCurveFrom": false,
      "hasCurveTo": false,
      "point": "{0, 0.5}"
    },
    {
      "_class": "curvePoint",
      "cornerRadius": 0,
      "curveFrom": "{0.56202626682675438, 0.5}",
      "curveMode": 1,
      "curveTo": "{0.2286929334934211, 0.5}",
      "hasCurveFrom": false,
      "hasCurveTo": false,
      "point": "{0.34303940024013158, 0.5}"
    },
    {
      "_class": "curvePoint",
      "cornerRadius": 0,
      "curveFrom": "{0.40957561584932944, 1.25}",
      "curveMode": 1,
      "curveTo": "{0.78101313341337719, 0.5}",
      "hasCurveFrom": false,
      "hasCurveTo": false,
      "point": "{1, 0.5}"
    }
  ],
  "resizingConstraint": 63,
  "resizingType": 0,
  "rotation": 0,
  "shouldBreakMaskChain": false
}